<?xml version="1.0" encoding="utf-8"?>
<!-- Generator: Adobe Illustrator 24.1.0, SVG Export Plug-In . SVG Version: 6.00 Build 0)  -->
<svg version="1.1" id="Capa_1" xmlns="http://www.w3.org/2000/svg" xmlns:xlink="http://www.w3.org/1999/xlink" x="0px" y="0px"
	 viewBox="0 0 1517.1 404.5" enable-background="new 0 0 1517.1 404.5" xml:space="preserve">
<g>
	<path fill="#8E1537" d="M37.5,103.4l-0.3-8c1.2-0.1,2.5-0.1,3.7-0.1c3.4,0,6.9,0.1,10.6,0.3c8.9,0.5,14.1,0.7,15.7,0.7
		c5.4,0,10.7-0.1,15.8-0.3c5.2-0.2,9.7-0.3,13.7-0.4c4-0.1,6.7-0.1,8.1-0.2l-0.1,1.2l0.2,5.9v0.8c-3.8,0.5-7.7,0.8-11.7,0.8
		c-3.8,0-6.3,0.7-7.5,2.2c-0.8,0.9-1.2,4.9-1.2,12c0,2.2,0,3.9,0.1,5.2l0.1,3.6l-0.2,9.5l0.6,8.1l-0.4,17.4l1.3,25.3
		c0.3,7.3,1.9,13.4,4.8,18.3c2.2,3.6,5.2,6.4,9.1,8.4c5.6,2.8,11.2,4.2,16.6,4.2c6.5,0,12.5-0.8,18.1-2.5c3.3-0.9,6.4-2.5,9.3-4.6
		c2.9-2.1,5-4,6.1-5.8c2.4-3.7,4.1-7.2,5-10.4c1.3-4.4,1.9-11.3,1.9-20.7c0-16.3-0.9-34.6-2.6-55l-0.4-5.3c-0.2-4-0.9-6.6-2.2-8
		c-2.2-2.1-4.6-3.1-7.3-3.1l-9.5,0.2l-1.3-0.3l0.2-7.8h8l19.3,0.9c6.5,0,12.6-0.3,18.5-0.9l1.7,0.2c0.4,2.2,0.6,3.8,0.6,4.6
		c0,0.7-0.1,1.6-0.4,2.7c-2.5,0.7-5.1,1.1-7.9,1.2c-4.5,0.6-7,1.1-7.5,1.5c-0.9,0.8-1.4,2.1-1.4,3.7c0,1.2,0.1,3,0.3,5.2
		c0.2,1.7,0.3,4.6,0.3,8.8c0,2.4,0,4.2,0.1,5.6c0,1.3,0.1,2.7,0.2,4.1c0.2,4.8,0.4,9.8,0.5,14.7l1,20.5c0,13.7-0.5,22.9-1.4,27.6
		c-0.9,4.6-2.2,8.3-3.8,11c-2.5,4-6,7.8-10.6,11.2c-4.6,3.4-10.3,6.1-17.1,8.1c-6.9,2-14.9,3-24,3c-10.4,0-19.4-1.4-26.8-4.2
		c-7.5-2.8-13.1-6.5-16.9-11c-3.8-4.5-6.4-10.4-7.8-17.7c-1-5-1.5-12.1-1.5-21.4v-48.1c0-11.4-0.5-17.8-1.6-19.3
		c-1.5-2.1-6.1-3.3-13.8-3.5C40,103.7,38.6,103.6,37.5,103.4z"/>
	<path fill="#8E1537" d="M211.3,94.9c3.8,0.2,7.2,0.5,10,0.9c5.3,0.7,11.5,1.1,18.5,1.1c2.4,0,8.6-0.2,18.7-0.6
		c15-0.6,28.5-0.9,40.6-0.9l18.3-0.2c4.1,0,10.2,0.5,18.2,1.5c1.2,1.3,1.8,3.2,1.8,5.4v20.8l0.2,4.1c0,0.4,0,1-0.1,1.8l-4.1,0.2
		c-0.5,0-1.7-0.1-3.4-0.2c-0.6-1.3-1.4-3.3-2.4-5.9l-4-7.2c-1.5-3-3.7-6.1-6.5-9.3c-1.7-0.5-3.8-0.7-6.5-0.8
		c-0.7-0.1-2.7-0.2-6.2-0.5c-6.3-0.5-13-0.8-20.2-0.8c-8.2,0-15.5,0.1-22,0.4c-0.2,1.7-0.3,8.3-0.3,19.9l0.1,16.9v12.7
		c1.7,0.2,3.1,0.3,4.3,0.3c12.1,0,20.6-0.2,25.8-0.7c5.1-0.5,8.3-1.1,9.5-2c1.2-0.8,2.3-2.3,3.2-4.4c0.6-1.5,1.8-6.4,3.5-14.8
		l1.3-0.1l5.8,0.1c0.3,6,0.4,10.5,0.4,13.6c0,7.1-0.1,11.6-0.2,13.6c-0.1,2-0.2,3.6-0.2,4.7c0,1.8,0.1,4.7,0.3,8.7
		c0.2,4,0.3,7,0.3,8.9v2.2H309c-0.3-1.1-0.8-3.3-1.5-6.7c-1.3-6.3-2.6-10.2-3.6-11.7c-0.8-1.2-2.2-2.1-4-2.7
		c-1.3-0.5-6.3-0.7-15-0.7c-10.2,0-17.8,0.3-22.9,0.8c0,1.7,0,2.9,0,3.4c0,8,0.1,14.7,0.4,20l-0.2,21.8c0,2.6,0.9,4.3,2.7,5.2
		c2.8,1.4,11.2,2.1,25.3,2.1c9.3,0,17.3-0.7,23.8-2.1c4.5-1,8.5-3.3,11.9-6.8c4.6-4.5,8.4-10.8,11.4-19c2.1-0.2,3.8-0.3,5.1-0.3
		c0.7,0,1.8,0,3.3,0.1c-0.2,1.7-0.4,3.1-0.5,4.2l-0.6,3l-3.7,19.1l-1.8,11.5c-4.4,0.2-7.8,0.3-10.4,0.3c-3.8,0-13.8-0.3-30.2-1
		c-11.5-0.5-25.4-0.7-41.6-0.7c-8.1,0-18,0.3-29.8,1H223l-12.2,0.4v-7c1.3-0.3,3.8-0.7,7.7-1.1c7-0.8,11.8-1.9,14.5-3.2
		c0.7-1.9,1.1-4.4,1.1-7.4c0-1.1,0-3.1-0.1-5.8l0.1-3.1l-0.3-38l0.1-11.4l-0.5-16.1l0.1-11.4l-0.9-12.5c0-0.3-0.1-1-0.2-2
		c-0.7-0.7-1.7-1.2-3-1.4c-0.7-0.1-1.7-0.3-3-0.6c-3.8-0.8-7.5-1.3-11.1-1.4c-1.3-0.1-2.8-0.2-4.4-0.4L211.3,94.9z"/>
	<path fill="#8E1537" d="M374.2,94.9c3.8,0.2,7.2,0.5,10,0.9c5.3,0.7,11.5,1.1,18.5,1.1c2.4,0,8.6-0.2,18.7-0.6
		c15-0.6,28.5-0.9,40.6-0.9l18.3-0.2c4.1,0,10.2,0.5,18.2,1.5c1.2,1.3,1.8,3.2,1.8,5.4v20.8l0.2,4.1c0,0.4,0,1-0.1,1.8l-4.1,0.2
		c-0.5,0-1.7-0.1-3.4-0.2c-0.6-1.3-1.4-3.3-2.4-5.9l-4-7.2c-1.5-3-3.7-6.1-6.5-9.3c-1.7-0.5-3.8-0.7-6.5-0.8
		c-0.7-0.1-2.7-0.2-6.2-0.5c-6.3-0.5-13-0.8-20.2-0.8c-8.2,0-15.5,0.1-22,0.4c-0.2,1.7-0.3,8.3-0.3,19.9l0.1,16.9v12.7
		c1.7,0.2,3.1,0.3,4.3,0.3c12.1,0,20.6-0.2,25.8-0.7c5.1-0.5,8.3-1.1,9.5-2c1.2-0.8,2.3-2.3,3.2-4.4c0.6-1.5,1.8-6.4,3.5-14.8
		l1.3-0.1l5.8,0.1c0.3,6,0.4,10.5,0.4,13.6c0,7.1-0.1,11.6-0.2,13.6c-0.1,2-0.2,3.6-0.2,4.7c0,1.8,0.1,4.7,0.3,8.7
		c0.2,4,0.3,7,0.3,8.9v2.2h-7.2c-0.3-1.1-0.8-3.3-1.5-6.7c-1.3-6.3-2.6-10.2-3.6-11.7c-0.8-1.2-2.2-2.1-4-2.7
		c-1.3-0.5-6.3-0.7-15-0.7c-10.2,0-17.8,0.3-22.9,0.8c0,1.7,0,2.9,0,3.4c0,8,0.1,14.7,0.4,20l-0.2,21.8c0,2.6,0.9,4.3,2.7,5.2
		c2.8,1.4,11.2,2.1,25.3,2.1c9.3,0,17.3-0.7,23.8-2.1c4.5-1,8.5-3.3,11.9-6.8c4.6-4.5,8.4-10.8,11.4-19c2.1-0.2,3.8-0.3,5.1-0.3
		c0.7,0,1.8,0,3.3,0.1c-0.2,1.7-0.4,3.1-0.5,4.2l-0.6,3l-3.7,19.1l-1.8,11.5c-4.4,0.2-7.8,0.3-10.4,0.3c-3.8,0-13.8-0.3-30.2-1
		c-11.5-0.5-25.4-0.7-41.6-0.7c-8.1,0-18,0.3-29.8,1h-4.2l-12.2,0.4v-7c1.3-0.3,3.8-0.7,7.7-1.1c7-0.8,11.8-1.9,14.5-3.2
		c0.7-1.9,1.1-4.4,1.1-7.4c0-1.1,0-3.1-0.1-5.8l0.1-3.1l-0.3-38l0.1-11.4l-0.5-16.1l0.1-11.4l-0.9-12.5c0-0.3-0.1-1-0.2-2
		c-0.7-0.7-1.7-1.2-3-1.4c-0.7-0.1-1.7-0.3-3-0.6c-3.8-0.8-7.5-1.3-11.1-1.4c-1.3-0.1-2.8-0.2-4.4-0.4L374.2,94.9z"/>
	<path fill="#8E1537" d="M618.1,97.8c0.7,2.3,1.3,5.7,1.8,10.4c0.8,6.9,1.2,12.3,1.2,16.1c0,1.2-0.1,2.5-0.4,3.9l-1,0.3l-7.3-0.5
		l-1.2-0.2c-3-8.9-5.9-14.9-8.9-18.1c-5.1-5.4-11.1-8.1-18.1-8.1c-6.6,0-11.8,1.7-15.7,5.2c-3.9,3.5-5.8,7.8-5.8,12.9
		c0,4.3,1.9,8.4,5.7,12.4c3.8,4,11.8,7.8,24,11.4c4.1,1.2,9.1,3.1,14.9,5.8c5.8,2.7,10.2,5.6,13.3,8.8c4,4.2,6.8,8.2,8.3,12.1
		c1.5,3.9,2.3,8.7,2.3,14.5c0,6.3-1.2,12.5-3.5,18.7c-1.3,3.2-3.3,6.3-6.2,9.2c-2,2-5.1,4.4-9.4,7.1c-4.2,2.7-8.6,4.7-13.2,5.9
		c-4.5,1.2-10.4,1.8-17.5,1.8c-4.7,0-10.3-0.7-16.8-2l-12.1-3.5c-3.4-0.9-5.5-1.8-6.4-2.5c-0.3-0.3-0.6-0.9-0.9-1.9v-1.1
		c0-0.7-0.2-5.3-0.5-13.8c-0.1-4.4-0.2-7.5-0.2-9.3v-3.8l9.4-0.2c3.2,7.5,5.3,12,6.2,13.6c2.1,3.4,4.4,6.2,6.9,8.3
		c2.5,2.1,5.5,3.8,9,5.1c3.5,1.2,7.3,1.9,11.4,1.9c3.6,0,7.6-0.8,12-2.3c4.4-1.5,7.9-4.1,10.5-7.6c2.7-3.5,4-7.3,4-11.4
		c0-5-2.3-9.6-7-13.8c-2.8-2.6-10.4-6.1-22.8-10.5c-12.4-4.4-20.9-8.3-25.7-11.7c-4.8-3.4-8.5-8-11.3-13.8
		c-2.8-5.8-4.1-11.3-4.1-16.6c0-10.7,3.8-19.8,11.5-27.2s19-11.2,33.9-11.2c3.2,0,8,0.6,14.3,1.7C606.7,94.3,611.8,95.7,618.1,97.8z
		"/>
	<path fill="#006098" d="M778.7,97c0.9,2,2.7,7.8,5.3,17.2c1.2,4.3,1.8,8.9,1.9,13.7h-9.2c-6.5-9.1-13.1-15.7-20-19.7
		c-6.9-4-14.5-6-23-6c-10.4,0-18.8,4.1-25.2,12.2c-8.7,11-13,26.4-13,46.1c0,11.4,0.7,19.6,2.2,24.4c2.4,7.9,5.5,14.3,9.2,19.3
		c2.8,3.8,6.5,6.8,11.1,9c5.9,3,12.2,4.5,19,4.5c7.4,0,14.5-2.3,21.4-6.9c6.9-4.6,13.5-11.4,19.8-20.5c2.5-0.5,5.7-0.7,9.8-0.8
		c-0.3,2.5-0.7,5.2-1.3,7.9c-0.2,1.1-1,5.3-2.3,12.8l-0.9,3l-1.4,4.7c-4.1,3.2-9.9,5.5-17.3,7.1c-7.4,1.6-16.6,2.4-27.4,2.4
		c-8.3,0-16.1-0.8-23.4-2.3c-7.4-1.5-13.7-4-18.9-7.4c-7.7-4.8-13.7-10.1-18.1-15.7c-4.4-5.6-7.6-11.8-9.7-18.5
		c-2.1-6.7-3.2-14.1-3.2-22.4c0-20,6.6-36.6,19.8-49.6C697.2,98.5,714,92,734.5,92c8.3,0,16.2,0.4,23.5,1.3
		C765.4,94.1,772.3,95.3,778.7,97z"/>
	<path fill="#006098" d="M815.8,217.1c2.1-0.6,5-1.2,8.8-1.7c3.8-0.6,6-0.8,6.7-0.8c2.6-0.1,4.4-0.5,5.2-1.3c0.4-1.6,0.6-3,0.6-4
		l-0.2-12.9l0.6-13.1v-8.4l0.1-9.9l-0.2-10.5l0.4-22.5l0.1-10.2v-1.4c-0.5-7.1-0.9-11-1.4-11.7c-0.4-0.7-2.4-1.6-5.8-2.7
		c-0.3-0.1-1.6-0.6-3.8-1.5c-1.7-0.7-3.2-1.1-4.5-1.4c-2.4-0.6-4-1.3-4.9-2.1c-0.1-1.7-0.2-3.1-0.2-4c0-0.5,0-1.3,0.1-2.4
		c0.6-0.3,1.2-0.5,1.9-0.5c1.6,0,7.5,0.3,17.5,0.8l14.4-0.1l10.7,0.2c4.6,0,10.6-0.3,17.8-0.8c2.2-0.2,3.4-0.3,3.7-0.3
		c1,0,1.7,0.3,2.1,0.8c0.5,0.7,0.8,2.1,0.8,4c0,1.5-0.4,2.7-1.1,3.5c-0.4,0.5-1.9,0.9-4.4,1.2l-12.5,2.9c-0.3,0.1-0.9,0.4-1.7,0.8
		c-0.3,0.5-0.5,0.9-0.6,1.2L866,111l-0.3,6.4v1.8v1.1c0,0.3-0.1,2.2-0.2,5.6c0,0.9-0.1,1.7-0.1,2.6c0,1.1,0.1,2.9,0.2,5.5
		c0.2,4,0.3,7.6,0.3,10.6c0,3.5-0.1,7.5-0.3,12c-0.1,1.7-0.1,3.9-0.1,6.6l-0.4,47.8c0,2,0.3,3.3,1,3.9l9.6,0.4l5.9-0.1l6.4,0.1
		c10.8,0,19.3-1.2,25.5-3.7c4.6-1.9,7.7-3.8,9.1-5.6c2.3-2,4.2-4.2,5.6-6.5c1.4-2.3,3.1-6.2,4.9-11.7h3.2c1.6,0,3.4,0.1,5.4,0.4v2.8
		c0,4.8-0.6,13.3-1.8,25.3c-0.5,4.8-0.9,7.8-1.4,8.8c-1.5,0.3-2.5,0.4-2.9,0.4h-3.7l-5.2,0.1c-0.6,0-4.6-0.3-12-0.8
		c-1.3-0.1-7.8-0.3-19.3-0.7c-11.5-0.4-22.8-0.6-33.8-0.6l-20.6,0.6c-7.9,0.2-15.4,0.6-22.3,1.1h-1.5c-0.4,0-1,0-1.9-0.1
		c-0.1-0.7-0.2-1.4-0.2-1.9C815.1,220.4,815.3,218.4,815.8,217.1z"/>
	<path fill="#006098" d="M967.1,225.5v-7.3c1.3-0.4,3.5-1,6.6-1.7c4.3-1.1,7.6-2.2,9.7-3.3c1.2-2.1,1.8-5,1.8-8.7l-0.1-11.9l0.2-23
		l-0.1-5.4c0.5-13.3,0.8-20.2,0.8-20.6l-0.2-13.4l0.3-5.4l-0.5-11.5l-0.2-4.3c-0.1-0.7-0.3-1.7-0.7-3.2c-2.8-1.3-7.2-2.1-13.4-2.4
		c-1.5-0.1-2.7-0.2-3.5-0.3l-0.2-8.9l28.8,1.2c3.6,0.1,5.8,0.2,6.7,0.2c4,0,10.3-0.3,19.1-0.8c4.9-0.3,8-0.5,9.3-0.6
		c0.1,1.3,0.1,2.4,0.1,3.2c0,1.1-0.1,2.6-0.2,4.4c-2.7,0.9-5.8,1.8-9.2,2.7c-3.5,0.8-6.3,1.7-8.5,2.6c-0.4,1.7-0.6,4.3-0.6,7.6
		c0,2.9,0.1,5.2,0.3,7.1c-0.2,11.4-0.3,20.1-0.3,26.2l0.1,26.6l-0.5,13.5l0.4,20.2l-0.3,3.8c0,0.5,0.2,1.3,0.6,2.3
		c4.1,0.9,7.8,1.5,11.1,1.8c0.6,0.1,2.6,0.3,6.1,0.8c0.3,2,0.4,3.7,0.4,5c0,0.7,0,1.9-0.1,3.4c-0.9,0-1.5,0-2,0.1
		c-2.1,0.1-3.4,0.2-3.7,0.2c-0.5,0-1.3-0.1-2.6-0.3c-0.9-0.1-5.4-0.6-13.4-1.4l-17.8-0.2c-3.6,0-8.7,0.3-15.5,1
		C971.4,225.2,968.5,225.4,967.1,225.5z"/>
	<path fill="#006098" d="M1058.3,102.9l-0.4-7.1h8.6l2.9-0.1c4-0.2,6.8-0.3,8.4-0.3c0.8,0,3.2,0.1,7.1,0.2c0.9,0.1,1.6,0.1,2.2,0.1
		s2.7-0.1,6.4-0.2c3.6-0.1,5.7-0.2,6.2-0.2c0.7,0,1.8,0,3.1,0.1c10.4,9.4,18.8,17.5,25.3,24.3c6.5,6.8,30.3,30.6,71.4,71.3v-2.5
		l-0.4-11.7c-0.2-6.9-0.5-12.3-0.8-16.3c-0.3-4-0.5-8.8-0.6-14.3c-0.1-5.5-0.3-10.6-0.7-15.1c-0.8-8.8-1.2-13.9-1.2-15.2
		c-0.1-4.4-0.5-7-1.4-8c-1.4-1.5-4.6-2.6-9.7-3.3c-3.7-0.6-6.5-1.4-8.3-2.3l0.1-5.9l2.6-0.3l19.9-0.6l22.2-0.6
		c1.5-0.1,2.9-0.1,4.2-0.1l0.1,6.6c-1.5,0.8-3.1,1.4-4.7,1.8c-4.3,1-6.8,1.7-7.5,2.1c-3.4,2-5.3,3.1-5.5,3.5
		c-0.6,0.8-0.9,2.1-0.9,3.7c0,0.4,0.1,1.8,0.2,4.2c0.1,1.2,0.1,4,0.1,8.5c0.1,9.7,0.3,17.4,0.8,23.1c0.1,1.8,0.2,3.9,0.3,6.2
		l1.1,35.4c0.1,2.5,0.1,4.2,0.1,5.2v12.4l0.3,5.2l-0.3,5.4c0.3,2.8,0.4,4.4,0.4,4.9v5.3l-11.6,0.4l-12-12.4l-24.5-24.3l-17.1-17.1
		l-12.6-12.9c-8.2-8.1-15.7-15.2-22.4-21.3l-16.4-14.8l0.9,37.5c0.1,2.3,0.1,4.6,0.1,7.1l-0.1,7.2l0.6,13.2
		c0.2,5.5,0.6,11.5,1.1,17.9c0.1,1.7,0.3,3,0.5,3.7c0.2,0.7,0.6,1.7,1.2,3.1c2.6,0.9,8.3,1.6,17.1,2.1c0.6,0.1,1.5,0.4,2.6,0.7
		l0.4,8.2l-3.9,0.1c-2.2,0-8.9-0.5-20.4-1.5c-10.7,0.1-17.8,0.3-21.4,0.6c-3.6,0.3-5.5,0.4-5.8,0.4c-0.8,0-1.9-0.1-3.3-0.4
		c-0.1-1.5-0.2-2.9-0.2-4c0-0.7,0-1.9,0.1-3.6c1.9-0.3,3.4-0.5,4.6-0.5c0.4,0,1.7,0.1,3.9,0.2c5.6,0,9-0.4,10-1.3
		c1-0.8,1.6-3.1,1.8-6.8c0.5-10.7,0.7-17.2,0.7-19.6v-5.5l0.2-32.8l-0.3-20.5c-0.1-7.8-0.6-13.2-1.5-16.2c-0.4-1.5-1.2-2.9-2.3-4
		c-2.4-2.4-5-4.2-7.9-5.4C1070.1,104.9,1065.6,104,1058.3,102.9z"/>
	<path fill="#006098" d="M1256.2,225.5v-7.3c1.3-0.4,3.5-1,6.6-1.7c4.3-1.1,7.6-2.2,9.7-3.3c1.2-2.1,1.8-5,1.8-8.7l-0.1-11.9l0.2-23
		l-0.1-5.4c0.5-13.3,0.8-20.2,0.8-20.6l-0.2-13.4l0.3-5.4l-0.5-11.5l-0.2-4.3c-0.1-0.7-0.3-1.7-0.7-3.2c-2.8-1.3-7.2-2.1-13.4-2.4
		c-1.5-0.1-2.7-0.2-3.5-0.3l-0.2-8.9l28.8,1.2c3.6,0.1,5.8,0.2,6.7,0.2c4,0,10.3-0.3,19.1-0.8c4.9-0.3,8-0.5,9.3-0.6
		c0.1,1.3,0.1,2.4,0.1,3.2c0,1.1-0.1,2.6-0.2,4.4c-2.7,0.9-5.8,1.8-9.2,2.7c-3.5,0.8-6.3,1.7-8.5,2.6c-0.4,1.7-0.6,4.3-0.6,7.6
		c0,2.9,0.1,5.2,0.3,7.1c-0.2,11.4-0.3,20.1-0.3,26.2l0.1,26.6l-0.5,13.5l0.4,20.2l-0.3,3.8c0,0.5,0.2,1.3,0.6,2.3
		c4.1,0.9,7.8,1.5,11.1,1.8c0.6,0.1,2.6,0.3,6.1,0.8c0.3,2,0.4,3.7,0.4,5c0,0.7,0,1.9-0.1,3.4c-0.9,0-1.5,0-2,0.1
		c-2.1,0.1-3.4,0.2-3.7,0.2c-0.5,0-1.3-0.1-2.6-0.3c-0.9-0.1-5.4-0.6-13.4-1.4l-17.8-0.2c-3.6,0-8.7,0.3-15.5,1
		C1260.4,225.2,1257.6,225.4,1256.2,225.5z"/>
	<path fill="#006098" d="M1470.2,97c0.9,2,2.7,7.8,5.3,17.2c1.2,4.3,1.8,8.9,1.9,13.7h-9.2c-6.5-9.1-13.1-15.7-20-19.7
		c-6.9-4-14.5-6-23-6c-10.4,0-18.8,4.1-25.2,12.2c-8.7,11-13,26.4-13,46.1c0,11.4,0.7,19.6,2.2,24.4c2.4,7.9,5.5,14.3,9.2,19.3
		c2.8,3.8,6.5,6.8,11.1,9c5.9,3,12.2,4.5,19,4.5c7.4,0,14.5-2.3,21.4-6.9c6.9-4.6,13.5-11.4,19.8-20.5c2.5-0.5,5.7-0.7,9.8-0.8
		c-0.3,2.5-0.7,5.2-1.3,7.9c-0.2,1.1-1,5.3-2.3,12.8l-0.9,3l-1.4,4.7c-4.1,3.2-9.9,5.5-17.3,7.1c-7.4,1.6-16.6,2.4-27.4,2.4
		c-8.3,0-16.1-0.8-23.4-2.3c-7.4-1.5-13.7-4-18.9-7.4c-7.7-4.8-13.7-10.1-18.1-15.7c-4.4-5.6-7.6-11.8-9.7-18.5
		c-2.1-6.7-3.2-14.1-3.2-22.4c0-20,6.6-36.6,19.8-49.6c13.2-13,30.1-19.6,50.6-19.6c8.3,0,16.2,0.4,23.5,1.3
		C1456.9,94.1,1463.8,95.3,1470.2,97z"/>
</g>
<g>
	<path fill="#8E1537" d="M748.1,201.7L748.1,201.7c6.2,0,11.3-5.1,11.3-11.3V170h-5.8c-9.3,0-16.8,7.5-16.8,16.8v3.6
		C736.8,196.6,741.9,201.7,748.1,201.7z"/>
	<path fill="#8E1537" d="M779.9,147.3h-4.9c-8.6,0-15.5,6.9-15.5,15.5v7.1h20.4c6.2,0,11.3-5.1,11.3-11.3v0
		C791.2,152.4,786.1,147.3,779.9,147.3z"/>
	<path fill="#8E1537" d="M736.8,126.9v9.1c0,6.2-5.1,11.3-11.3,11.3h-9.1c-6.2,0-11.3,5.1-11.3,11.3v0c0,6.2,5.1,11.3,11.3,11.3
		h20.4h0.4c12.3,0,22.2-9.9,22.2-22.2v-0.4v-20.4c0-6.2-5.1-11.3-11.3-11.3l0,0C741.9,115.6,736.8,120.6,736.8,126.9z"/>
</g>
<g>
	<path fill="#53575A" d="M135.3,264.8c0.3,1.9,0.5,3.9,0.5,6c0,0.4,0,0.9,0,1.6c-0.4,0.1-0.6,0.1-0.8,0.1c-0.2,0-0.4,0-0.6-0.1
		c-1.1-3-2.8-5.2-5.2-6.8c-2.4-1.6-5.4-2.4-8.9-2.4c-1.9,0-3.4,0.2-4.7,0.6c-2.3,0.8-4.3,1.9-6,3.2c-1.7,1.4-3.2,3-4.4,4.9
		c-1.2,1.9-2.1,4.2-2.8,6.9c-0.7,2.7-1,5.5-1,8.3c0,5.4,0.8,9.9,2.5,13.4c1.6,3.5,3.9,6,6.7,7.5c2.9,1.5,5.7,2.3,8.6,2.3l1.8,0
		c2-0.3,3.4-0.5,4.1-0.7c1.8-0.5,3.4-1.2,4.6-1.9c1.2-0.7,2.4-1.7,3.5-3c1.1-1.3,2.1-2.8,2.9-4.6l0.5-0.2c0.1,0,0.3,0.1,0.6,0.2
		c0,0.6-0.1,1-0.1,1.2c-1.1,4.3-1.8,7.2-2.3,8.7c-0.4,0.1-0.9,0.3-1.5,0.5c-3,1-6.9,1.5-11.8,1.5c-4,0-7-0.3-8.9-0.8
		c-2-0.5-4.1-1.4-6.5-2.5c-2.3-1.1-4.4-2.7-6.1-4.6c-1.8-1.9-3.2-4.3-4.3-7.2c-1.1-2.9-1.6-6-1.6-9.4c0-3.2,0.4-6,1.3-8.5
		c0.9-2.4,2.2-4.8,4-7.3c1.8-2.5,3.9-4.5,6.3-6.2c2.4-1.6,5.1-2.8,8.1-3.5c2.1-0.5,5.1-0.7,8.9-0.7c2.8,0,5.4,0.4,7.9,1.1
		C132.8,263.4,134.5,264.1,135.3,264.8z"/>
	<path fill="#53575A" d="M178.9,264.2v-0.8c0.7-0.2,1.5-0.5,2.3-0.7c1.3-0.4,3.1-1,5.6-1.9h1.8c0,1.2,0,1.9,0,2.1
		c0,20.7-0.1,33.1-0.2,37.1c-0.1,2.3-0.1,3.6-0.1,3.7c0,2.8,0.1,4.4,0.3,4.7c0.3,0.5,1.2,0.8,2.8,0.9c1.6,0.2,2.5,0.4,2.7,0.5
		c0.2,0.1,0.3,0.3,0.3,0.5c0,0.3-0.1,0.5-0.2,0.6c-0.1,0.1-0.3,0.2-0.6,0.2c-0.2,0-1.5,0-4-0.1l-5-0.2l-6.4,0.3
		c-0.4,0-0.7-0.1-0.9-0.2c-0.2-0.1-0.2-0.3-0.2-0.5c0-0.3,0.1-0.4,0.2-0.6c0.2-0.1,1.1-0.3,2.7-0.6c1.7-0.3,2.6-0.5,2.8-0.7
		c0.2-0.2,0.4-0.6,0.5-1.3c0.1-0.9,0.2-3.5,0.2-7.7l0-8.7l0.1-9l0-9l0.1-4.4c0-0.9-0.1-1.5-0.4-1.9c-0.3-0.4-0.9-0.8-1.8-1.2
		C180.3,264.9,179.4,264.5,178.9,264.2z"/>
	<path fill="#53575A" d="M231.9,310c0.4-0.3,0.8-0.4,1.5-0.5c2.3-0.3,3.7-0.7,4.4-1.2c0.3-0.3,0.5-0.8,0.6-1.5c0.2-1,0.2-3.3,0.2-7
		l0-8.1l0.1-3.3c0-1.2-0.3-2-0.8-2.6c-0.5-0.6-1.8-1.1-3.9-1.5l0-1.1c3.5-0.8,6.2-2.6,8.1-5.5c0.3-0.1,0.5-0.2,0.6-0.2
		c0.2,0,0.4,0.1,0.6,0.2l0.1,1.4v7l0,9.2l-0.2,9.7l0,1.6c0,1,0.2,1.6,0.4,1.8c0.4,0.4,1.9,0.9,4.3,1.6c0.4,0.1,0.7,0.2,0.9,0.3v1
		h-0.6c-4.2-0.3-7-0.5-8.2-0.5c-2.9,0-5.2,0.1-7,0.3c-0.3,0-0.5,0-0.6,0c-0.2,0-0.4-0.1-0.5-0.2c-0.1-0.1-0.2-0.3-0.2-0.4
		C231.8,310.4,231.8,310.3,231.9,310z M237,273.9l4.7-6.8c1.4-2,2.7-3.4,4-4.3c0.6-0.4,1.2-0.6,1.8-0.6c0.7,0,1.2,0.2,1.6,0.6
		c0.4,0.4,0.6,0.8,0.6,1.3c0,0.5-0.2,1-0.5,1.5c-0.4,0.5-1.2,1.2-2.5,2.1l-8.9,6.1l-0.4,0.1L237,273.9z"/>
	<path fill="#53575A" d="M288.2,309.9c0.6-0.2,1.4-0.3,2.2-0.5c1.6-0.2,2.5-0.5,2.9-0.8c0.3-0.3,0.5-1,0.5-2.1l0.1-1.4
		c0-0.5,0-1.1,0-1.9l-0.1-11.6c0-1.6-0.2-2.6-0.6-3c-0.7-0.7-1.9-1.2-3.8-1.5v-1.4c1.8-0.5,3.3-1.2,4.2-2c1.4-1.1,2.6-2.7,3.6-4.6
		l1.3,0c0.1,1.2,0.1,2,0.1,2.5v2.5l0,0.7c0.3-0.2,0.7-0.5,1.1-0.8c1.5-1.1,3.1-2.1,4.7-2.8c1.6-0.7,3-1.2,4.2-1.5
		c0.8-0.2,1.7-0.3,2.6-0.3c2.1,0,3.8,0.6,5.3,1.7c1.5,1.1,2.5,2.4,2.9,3.9c0.4,1.5,0.7,4.5,0.7,9v5.7c0,0.2,0,0.7-0.1,1.5
		c0,0.9-0.1,1.8-0.1,3c0,1.8,0.1,2.9,0.2,3.4c0.1,0.3,0.5,0.7,1,1c2.4,0.3,3.8,0.7,4.2,1.2v0.3c0,0.3-0.1,0.6-0.2,0.9h-0.7l-5-0.1
		l-4.9,0.1c-1.8,0.1-3.5,0-5,0l-0.2-0.8c0-0.2,0.1-0.4,0.3-0.6c0.7-0.3,1.6-0.5,2.9-0.6c0.7-0.1,1.2-0.1,1.5-0.2
		c0.3-0.1,0.6-0.3,1-0.6c0.3-0.6,0.5-1.1,0.5-1.5c0-0.2,0-0.5-0.1-1.1c-0.1-1.2-0.1-4.1-0.2-8.7v-2l0.1-3c0-3.3-0.7-5.5-2-6.7
		c-1.3-1.2-3.1-1.9-5.3-1.9c-1.7,0-3.3,0.4-5,1.1c-1.6,0.7-3.2,1.9-4.7,3.3c-0.1,1.2-0.1,2.2-0.1,3.1l0.1,8.4c0,4.4,0.1,7,0.2,8
		c0.1,0.4,0.1,0.7,0.3,0.8c0.2,0.2,0.6,0.4,1.2,0.5c0.6,0.1,1.3,0.3,2.1,0.5s1.3,0.4,1.6,0.4c0.5,0.1,0.8,0.4,1,0.8l0,0.8h-4
		l-8.2-0.1c-1.9,0-3.1,0-3.6,0h-0.9l-0.1-0.5C288.1,310.5,288.2,310.2,288.2,309.9z"/>
	<path fill="#53575A" d="M365.7,284.3l0-1.1c1.6-0.5,2.5-0.8,2.6-0.8c0.9-0.4,1.9-1,2.9-1.9c1-0.8,1.8-1.8,2.5-2.8
		c0.3-0.1,0.5-0.1,0.7-0.1l0.5,0c0.1,1.2,0.2,2.1,0.2,2.6c0,0.1,0,0.7-0.1,1.7v2l0,10.9l-0.1,11.5c0,0.9,0.1,1.6,0.5,1.9
		c0.3,0.4,1.3,0.8,2.9,1.2c1,0.3,1.8,0.5,2.3,0.7c0.1,0.2,0.1,0.3,0.1,0.5c0,0.2-0.1,0.3-0.2,0.6c-1,0-2.2-0.1-3.8-0.2
		c-2.1-0.2-3.5-0.3-4.2-0.3c-0.3,0-2.3,0.1-6.1,0.2c-0.8,0-1.5,0.1-2.2,0.2c-0.1,0-0.3,0-0.6-0.1c-0.1-0.2-0.2-0.3-0.2-0.5
		c0-0.4,0.2-0.6,0.7-0.8c0.1,0,1.4-0.3,3.9-0.9c0.8-0.2,1.3-0.4,1.6-0.8c0.4-0.5,0.6-1.4,0.6-2.5c0.1-1.9,0.1-7.3,0.1-15.9
		c0-1.7-0.1-2.8-0.2-3.2c-0.1-0.3-0.5-0.6-1-1C368.7,285.1,367.5,284.7,365.7,284.3z M368.9,264.6c0-0.8,0.3-1.6,1-2.2
		c0.6-0.6,1.4-0.9,2.3-0.9c0.9,0,1.8,0.3,2.5,1c0.7,0.7,1.1,1.4,1.1,2.2c0,0.8-0.4,1.5-1.1,2.2c-0.7,0.7-1.5,1-2.5,1
		s-1.7-0.3-2.3-0.9C369.2,266.5,368.9,265.6,368.9,264.6z"/>
	<path fill="#53575A" d="M448.7,304.2l0,2.5c-2,2.1-3.9,3.6-5.8,4.4c-1.9,0.8-4.2,1.2-6.8,1.2c-2.8,0-5.4-0.7-7.6-2.2
		c-2.3-1.5-4-3.6-5.2-6.3c-1.2-2.7-1.8-5.3-1.8-7.9c0-2.9,0.7-5.5,2.2-8.1c1.5-2.5,3.4-4.4,5.9-5.7c2.4-1.2,5.5-1.9,9.2-1.9
		c3.5,0,6.2,0.6,8.1,1.8c1,0.7,1.6,1.6,1.6,2.7c0,0.8-0.3,1.5-0.8,2c-0.5,0.5-1.2,0.8-2,0.8c-1.3,0-2.6-0.8-4.2-2.3
		c-0.9-1-1.8-1.6-2.5-2c-0.8-0.4-1.6-0.5-2.5-0.5c-2.2,0-4.1,0.9-5.6,2.8c-2.1,2.6-3.1,5.9-3.1,9.9c0,4.1,1.1,7.3,3.2,9.8
		c2.1,2.4,4.6,3.6,7.4,3.6c2,0,3.7-0.3,5.2-1C444.9,307.1,446.7,305.9,448.7,304.2z"/>
	<path fill="#53575A" d="M518.7,306c0.2,0.3,0.2,0.6,0.2,0.7c0,0.4-0.3,1-0.9,2c-0.8,1.3-1.7,2.2-2.6,2.8c-0.6,0.4-1.4,0.6-2.5,0.6
		c-1.8,0-3.2-0.6-4.1-1.7c-0.6-0.7-0.9-1.8-1.2-3.5l-4.2,3c-1.5,0.9-2.6,1.4-3.4,1.6c-1.3,0.3-2.8,0.5-4.5,0.5c-1.3,0-2.3-0.4-3-1.2
		c-0.7-0.8-1.1-1.8-1.1-3c0-1.7,1.1-3.8,3.2-6.2c2.1-2.4,5-4.4,8.7-5.9c2.6-1.1,4.2-1.8,4.7-2.1c0.1-0.8,0.1-1.7,0.1-2.7
		c0-3.2-0.4-5.4-1.3-6.5c-0.9-1.1-2.2-1.7-3.9-1.7c-1.7,0-3.4,0.7-4.9,2c-0.9,0.9-1.6,2.5-2.1,4.8c-0.2,0.7-0.4,1.4-0.9,2.1
		c-1.1,0.7-2,1.1-2.6,1.1c-0.6,0-1.1-0.2-1.5-0.5c-0.3-0.2-0.4-0.4-0.4-0.6c0-0.7,0.7-2.1,2.1-4.4c1.4-2.3,3.2-4,5.3-5.2
		c2.1-1.1,4-1.7,5.6-1.7c2.2,0,3.8,0.2,4.8,0.6c1.1,0.4,2,1.1,2.8,2.1c0.8,1,1.3,2.1,1.5,3.2c0.1,0.6,0.2,2.5,0.2,5.9l-0.1,6l0,4.4
		c0,0.6,0,1.1,0,1.5c0,0.7,0,1.3,0,1.6c0,0.8,0.2,1.5,0.7,2c0.5,0.5,1,0.8,1.7,0.8c1,0,1.8-0.5,2.5-1.4l0.5-0.6
		C518,306.2,518.3,306.1,518.7,306z M507.6,304.9c0.2-3.2,0.3-5.5,0.3-6.8c0-0.7,0-1.6-0.1-2.8c-1.7,0.6-3.5,1.5-5.4,2.8
		c-1.9,1.2-3.4,2.7-4.5,4.3c-0.8,1.2-1.2,2.3-1.2,3.3c0,1,0.3,1.8,1,2.5c0.7,0.7,1.5,1,2.5,1c0.8,0,1.7-0.3,2.8-0.8
		C504.5,307.6,506,306.4,507.6,304.9z"/>
	<path fill="#53575A" d="M635.3,262.5c0.1,0.4,0.2,0.8,0.2,1c0,0.2,0,0.4-0.1,0.7c-0.7,0.2-1.2,0.3-1.6,0.3c-0.2,0-0.5,0-0.9-0.1
		c-0.4,0-0.8-0.1-1-0.1c-1.2,0-2.1,0.2-2.8,0.7c-0.5,0.3-0.7,0.6-0.8,1.1l-0.4,4.3l0.1,18.7c0,6.9,0.3,11.1,0.7,12.8
		c0.4,1.7,1.1,3.1,2.2,4.1c1,1.1,2.5,2,4.6,2.7c2,0.7,4,1.1,5.9,1.1c4.3,0,7.6-0.6,9.9-1.9c2.3-1.2,3.9-2.9,4.9-5.1
		c1-2.2,1.5-5.5,1.5-9.9c0-0.1,0-1.1-0.1-3v-1.1c0-0.4,0-1.2,0.1-2.4c0-1.2,0.1-1.9,0.1-2.1l-0.6-10.9c-0.2-3.7-0.4-5.8-0.6-6.5
		c-0.2-0.7-0.6-1.1-1-1.5c-1-0.7-2.9-1.3-5.6-1.9c-0.1-0.4-0.2-0.7-0.2-1.1c1-0.1,2-0.2,2.9-0.2c1,0,2.1,0,3.2,0.1
		c1.7,0.1,2.6,0.2,2.7,0.2l6-0.2l1.2,0l0,1.4c-3.1,0.4-5,0.9-5.6,1.4c-0.6,0.5-0.9,1.5-0.9,3c0,0.8,0,2.5,0.2,5.1l0.3,7.8l0,3.1
		l0.1,3.9c0,4.9-0.1,8.3-0.4,10.1c-0.4,2.5-1,4.5-1.7,5.9c-0.7,1.5-1.8,2.8-3.2,4c-1.4,1.2-3.3,2.1-5.7,2.9c-2.4,0.8-4.7,1.1-7,1.1
		c-3.6,0-6.2-0.3-7.8-0.8c-2.9-0.9-5.2-2-6.9-3.4c-1.7-1.4-2.9-2.8-3.6-4.2c-0.9-1.9-1.3-4.6-1.3-8.2v-2.6l-0.1-10.6l0.1-8.6v-5.8
		c0-1.5-0.2-2.5-0.6-3.1c-0.3-0.4-0.7-0.6-1.2-0.6l-2.2,0c-1.7,0-2.7-0.2-3.2-0.5c-0.1-0.2-0.1-0.4-0.1-0.6c0-0.2,0.1-0.4,0.2-0.5
		c0.3-0.2,0.6-0.3,1-0.3h1l2.5,0h6L635.3,262.5z"/>
	<path fill="#53575A" d="M706.8,309.9c0.6-0.2,1.4-0.3,2.2-0.5c1.6-0.2,2.5-0.5,2.9-0.8c0.3-0.3,0.5-1,0.5-2.1l0.1-1.4
		c0-0.5,0-1.1,0-1.9l-0.1-11.6c0-1.6-0.2-2.6-0.6-3c-0.7-0.7-1.9-1.2-3.8-1.5v-1.4c1.8-0.5,3.3-1.2,4.2-2c1.4-1.1,2.6-2.7,3.6-4.6
		l1.3,0c0.1,1.2,0.1,2,0.1,2.5v2.5l0,0.7c0.3-0.2,0.7-0.5,1.1-0.8c1.5-1.1,3.1-2.1,4.7-2.8c1.6-0.7,3-1.2,4.2-1.5
		c0.8-0.2,1.7-0.3,2.6-0.3c2.1,0,3.8,0.6,5.3,1.7c1.5,1.1,2.5,2.4,2.9,3.9c0.4,1.5,0.7,4.5,0.7,9v5.7c0,0.2,0,0.7-0.1,1.5
		c0,0.9-0.1,1.8-0.1,3c0,1.8,0.1,2.9,0.2,3.4c0.1,0.3,0.5,0.7,1,1c2.4,0.3,3.8,0.7,4.2,1.2v0.3c0,0.3-0.1,0.6-0.2,0.9h-0.7l-5-0.1
		l-4.9,0.1c-1.8,0.1-3.5,0-5,0l-0.2-0.8c0-0.2,0.1-0.4,0.3-0.6c0.7-0.3,1.6-0.5,2.9-0.6c0.7-0.1,1.2-0.1,1.5-0.2
		c0.3-0.1,0.6-0.3,1-0.6c0.3-0.6,0.5-1.1,0.5-1.5c0-0.2,0-0.5-0.1-1.1c-0.1-1.2-0.1-4.1-0.2-8.7v-2l0.1-3c0-3.3-0.7-5.5-2-6.7
		c-1.3-1.2-3.1-1.9-5.3-1.9c-1.7,0-3.3,0.4-5,1.1c-1.6,0.7-3.2,1.9-4.7,3.3c-0.1,1.2-0.1,2.2-0.1,3.1l0.1,8.4c0,4.4,0.1,7,0.2,8
		c0.1,0.4,0.1,0.7,0.3,0.8c0.2,0.2,0.6,0.4,1.2,0.5c0.6,0.1,1.3,0.3,2.1,0.5s1.3,0.4,1.6,0.4c0.5,0.1,0.8,0.4,1,0.8l0,0.8h-4
		l-8.2-0.1c-1.9,0-3.1,0-3.6,0h-0.9l-0.1-0.5C706.6,310.5,706.7,310.2,706.8,309.9z"/>
	<path fill="#53575A" d="M784.2,284.3l0-1.1c1.6-0.5,2.5-0.8,2.6-0.8c0.9-0.4,1.9-1,2.9-1.9c1-0.8,1.8-1.8,2.5-2.8
		c0.3-0.1,0.5-0.1,0.7-0.1l0.5,0c0.1,1.2,0.2,2.1,0.2,2.6c0,0.1,0,0.7-0.1,1.7v2l0,10.9l-0.1,11.5c0,0.9,0.1,1.6,0.5,1.9
		c0.3,0.4,1.3,0.8,2.9,1.2c1,0.3,1.8,0.5,2.3,0.7c0.1,0.2,0.1,0.3,0.1,0.5c0,0.2-0.1,0.3-0.2,0.6c-1,0-2.2-0.1-3.8-0.2
		c-2.1-0.2-3.5-0.3-4.2-0.3c-0.3,0-2.3,0.1-6.1,0.2c-0.8,0-1.5,0.1-2.2,0.2c-0.1,0-0.3,0-0.6-0.1c-0.1-0.2-0.2-0.3-0.2-0.5
		c0-0.4,0.2-0.6,0.7-0.8c0.1,0,1.4-0.3,3.9-0.9c0.8-0.2,1.3-0.4,1.6-0.8c0.4-0.5,0.6-1.4,0.6-2.5c0-1.9,0.1-7.3,0.1-15.9
		c0-1.7-0.1-2.8-0.2-3.2c-0.1-0.3-0.5-0.6-1-1C787.2,285.1,786,284.7,784.2,284.3z M787.4,264.6c0-0.8,0.3-1.6,1-2.2
		c0.6-0.6,1.4-0.9,2.3-0.9c0.9,0,1.8,0.3,2.5,1c0.7,0.7,1.1,1.4,1.1,2.2c0,0.8-0.4,1.5-1.1,2.2c-0.7,0.7-1.5,1-2.5,1
		c-0.9,0-1.7-0.3-2.3-0.9C787.7,266.5,787.4,265.6,787.4,264.6z"/>
	<path fill="#53575A" d="M835.6,281c2.8,0,5.2,0.1,7.3,0.3c1.5,0,2.6,0,3.3-0.1c0.5,0,0.8,0,0.9,0l4.2,0c0.6,0.1,1,0.2,1.4,0.2
		c0.2,0.1,0.3,0.2,0.4,0.4c0,0.3-0.1,0.5-0.2,0.8c-0.4,0.1-0.9,0.2-1.3,0.2c-1.9,0.2-3.5,0.5-4.8,0.9c-0.2,0.1-0.3,0.2-0.3,0.4
		c0,0.2,0.1,0.6,0.4,1.2c0.1,0.1,0.2,0.4,0.3,0.9l3.8,9.1c1.7,4.2,3.3,7.7,4.7,10.5c1-1.9,1.9-3.8,2.7-5.8c0.8-2,2-5.1,3.7-9.4
		c0.5-1.2,0.9-2.7,1.3-4.5c0.1-0.4,0.1-0.7,0.1-0.9c0-0.3-0.2-0.6-0.5-1c-0.3-0.4-0.9-0.7-1.7-0.9c-0.2,0-1.3-0.2-3.4-0.6
		c-0.2-0.1-0.3-0.2-0.5-0.4V282c0-0.1,0-0.3,0-0.5c0.6-0.1,1-0.1,1.3-0.1l4.5,0c0.3,0,1,0,2.2-0.1c4,0,6.4,0,7.2,0.1
		c0.2,0.1,0.3,0.2,0.4,0.5c0,0.2-0.1,0.5-0.2,0.8l-1.2,0.3c-0.3,0-0.5,0-0.7,0.1c-2.2,0.2-3.5,0.5-4,0.9c-0.4,0.3-1,1.6-1.8,3.9
		c-0.4,1.1-0.9,2.6-1.7,4.3l-2,4.8c-0.3,0.7-0.6,1.4-0.9,2.2l-5.9,13.6h-1.2c-0.2-0.6-0.5-1.2-0.8-1.9l-2.9-6.1l-6.8-15.9
		c-1.4-3.1-2.2-4.7-2.5-5c-0.3-0.3-1.9-0.8-4.8-1.6c-0.2-0.4-0.2-0.7-0.2-0.9L835.6,281z"/>
	<path fill="#53575A" d="M938,291.2l-15.2,0.1l-2.9,0c-1.2,0-2.3,0.1-3.6,0.2c-0.2,0.8-0.3,1.3-0.3,1.6l0,0.4v0.4l0,1.9
		c0,1.5,0.5,3.4,1.5,5.7c1,2.2,2.4,3.9,4.2,5.1c1.8,1.2,4.1,1.8,6.8,1.9c1.4-0.1,2.6-0.3,3.4-0.5c0.9-0.3,2.1-0.9,3.6-1.9l2.7-2.2
		l0.2,1.5c0,0.2,0,0.4,0,0.6c-1.1,1.4-2.6,2.7-4.3,3.8c-1.7,1.1-3.5,1.9-5.3,2.4c-0.9,0.2-2.3,0.3-4.2,0.3c-1.8,0-3.6-0.4-5.3-1.1
		c-2.6-1.1-4.6-2.9-6.1-5.4c-1.5-2.5-2.2-5.4-2.2-8.9c0-1.1,0.2-2.5,0.6-4.3c0.4-1.7,1.2-3.6,2.3-5.6c0.7-1.3,1.6-2.4,2.7-3.3
		c1.5-1.2,2.8-2.1,4-2.5c1.6-0.7,3.5-1,5.7-1c2.3,0,4.3,0.4,5.8,1.3c2,1.1,3.5,2.6,4.5,4.4c1,1.8,1.5,3.4,1.5,4.9V291.2z
		 M916.9,289.8h1.8c1.3,0,5.1-0.2,11.5-0.6c1,0,1.6-0.2,1.9-0.3c0.5-0.5,0.7-0.9,0.7-1.3c0-0.8-0.3-1.7-0.8-2.7
		c-0.5-1-1.3-1.8-2.3-2.3c-1-0.5-2.3-0.8-3.7-0.8c-2.9,0-5.3,1.1-7,3.3C917.6,286.8,916.9,288.3,916.9,289.8z"/>
	<path fill="#53575A" d="M979,311.2l-0.2-0.5c0-0.2,0.1-0.4,0.3-0.8l2.2-0.5l3.1-0.6c0.3-0.1,0.4-0.3,0.5-0.5
		c0.2-0.3,0.2-1.3,0.2-2.9c0-8.6-0.1-13.5-0.2-14.8c-0.1-1.3-0.3-2.2-0.7-2.5c-0.4-0.4-1.3-0.6-2.7-0.8c-0.9-0.1-1.5-0.3-2-0.5
		l0.2-1.2c2.6-1.1,4.4-2,5.3-2.8c1.3-1.1,2.3-2.6,3.2-4.5l1.3,0c0.2,1.3,0.2,4.1,0.2,8.4l0,0.6c0,0.2,0,0.4,0.1,0.7
		c1-1.7,2.2-3.3,3.6-4.8l0.9-0.9c0.4-0.4,0.7-0.7,1-0.9c1.8-1.1,3.1-1.6,3.9-1.6c1.1,0,2,0.4,2.7,1.1c0.7,0.7,1.1,1.7,1.1,2.7
		c0,0.9-0.3,1.5-0.8,2c-0.7,0.6-1.5,0.9-2.3,0.9c-0.4,0-1.2-0.2-2.4-0.6c-1.2-0.4-2-0.6-2.3-0.6c-0.7,0-1.2,0.1-1.5,0.3
		c-0.7,0.6-1.6,1.7-2.6,3.4c-0.8,1.3-1.2,2.5-1.2,3.6l0.2,6.3l0.1,7.5c0.1,0.9,0.2,1.4,0.3,1.7c0.1,0.2,0.4,0.4,0.8,0.6
		c2.7,0.2,4.3,0.4,4.8,0.5c0.4,0,0.6,0.1,0.8,0.1c1.1,0,1.8,0.2,2.3,0.5c0.2,0.1,0.3,0.3,0.3,0.6c0,0.2-0.1,0.4-0.3,0.6l-4.2-0.1
		l-1.6,0l-2.3,0h-3.9l-2.1,0.1L979,311.2z"/>
	<path fill="#53575A" d="M1046,301.5c0.9,2.4,1.6,3.9,2.1,4.7c1,1.4,2.1,2.6,3.4,3.3c1.3,0.8,2.8,1.2,4.4,1.2c1.4,0,2.9-0.6,4.3-1.9
		c1-0.9,1.5-2,1.5-3.3c0-1.6-0.6-3.2-1.8-4.5c-1.2-1.4-3.4-2.7-6.8-3.9c-3.3-1.2-5.5-2.6-6.7-4c-1.1-1.4-1.7-3-1.7-4.8
		c0-1.7,0.5-3.2,1.4-4.5c0.9-1.3,2.2-2.3,3.9-3c1.6-0.7,3.2-1,4.5-1c1.8,0,3.4,0.1,4.8,0.4c1.4,0.3,2.7,0.7,3.7,1.3
		c0.2,1.3,0.4,3.2,0.5,5.7l0.1,1.2c-0.3,0-0.6,0-0.8,0h-0.5c-0.8-2.1-1.9-3.8-3.5-5c-1.6-1.2-3.1-1.8-4.6-1.8
		c-1.5,0-2.7,0.5-3.7,1.4c-0.9,0.9-1.4,2.1-1.4,3.6c0,1.1,0.4,2.1,1.1,3c0.8,0.9,2.5,1.9,5.3,3c2.8,1.1,4.8,2.2,6.1,3.2
		c1.3,1,2.2,2.2,2.8,3.5c0.6,1.4,0.9,2.7,0.9,4c0,1.7-0.6,3.4-1.7,4.9c-1.1,1.5-2.6,2.6-4.3,3.2c-1.7,0.6-3.3,0.9-4.6,0.9
		c-3.2,0-6.2-0.6-8.9-1.8c-0.3-0.2-0.4-0.6-0.4-1.1c0-0.2,0-0.6-0.1-1.1c-0.4-3.4-0.6-5.4-0.6-6.1c0-0.3,0.1-0.5,0.2-0.6
		C1045.1,301.6,1045.5,301.5,1046,301.5z"/>
	<path fill="#53575A" d="M1108.2,284.3l0-1.1c1.6-0.5,2.5-0.8,2.6-0.8c0.9-0.4,1.9-1,2.9-1.9c1-0.8,1.8-1.8,2.5-2.8
		c0.3-0.1,0.5-0.1,0.7-0.1l0.5,0c0.1,1.2,0.2,2.1,0.2,2.6c0,0.1,0,0.7-0.1,1.7v2l0,10.9l-0.1,11.5c0,0.9,0.1,1.6,0.5,1.9
		c0.3,0.4,1.3,0.8,2.9,1.2c1,0.3,1.8,0.5,2.3,0.7c0.1,0.2,0.1,0.3,0.1,0.5c0,0.2-0.1,0.3-0.2,0.6c-1,0-2.2-0.1-3.8-0.2
		c-2.1-0.2-3.5-0.3-4.2-0.3c-0.3,0-2.3,0.1-6.1,0.2c-0.8,0-1.5,0.1-2.2,0.2c-0.1,0-0.3,0-0.6-0.1c-0.1-0.2-0.2-0.3-0.2-0.5
		c0-0.4,0.2-0.6,0.7-0.8c0.1,0,1.4-0.3,3.9-0.9c0.8-0.2,1.3-0.4,1.6-0.8c0.4-0.5,0.6-1.4,0.6-2.5c0-1.9,0.1-7.3,0.1-15.9
		c0-1.7-0.1-2.8-0.2-3.2c-0.1-0.3-0.5-0.6-1-1C1111.1,285.1,1110,284.7,1108.2,284.3z M1111.4,264.6c0-0.8,0.3-1.6,1-2.2
		c0.6-0.6,1.4-0.9,2.3-0.9c0.9,0,1.8,0.3,2.5,1c0.7,0.7,1.1,1.4,1.1,2.2c0,0.8-0.4,1.5-1.1,2.2c-0.7,0.7-1.5,1-2.5,1
		c-0.9,0-1.7-0.3-2.3-0.9C1111.7,266.5,1111.4,265.6,1111.4,264.6z"/>
	<path fill="#53575A" d="M1171.8,273.7l1.2,0l0.2,3.6l-0.1,4.7c0.5,0,0.8,0,0.9,0c0.7,0,1.9,0,3.7-0.2c1.2-0.1,2.3-0.1,3.4-0.1
		c0.5,0,1.3,0,2.3,0c0.1,0.5,0.1,0.9,0.1,1.2c0,0.3-0.1,0.8-0.2,1.6h-0.6l-5.9,0.2l-2.9,0.1l-0.7,0.1c-0.2,0.6-0.3,1.4-0.3,2.2
		l0.1,5.7l-0.1,10c0,2.6,0.3,4.4,1,5.2c0.7,0.9,1.6,1.3,3,1.3c0.7,0,1.9-0.2,3.7-0.6c0.6-0.1,1.3-0.5,2.2-1.2h0.3
		c0.2,0,0.4,0.1,0.5,0.2s0.2,0.3,0.2,0.5l0,0.3c-1.1,1.2-2.3,2-3.7,2.6c-1.4,0.5-3.3,0.8-5.6,0.8c-1.6,0-3-0.4-4.1-1.1
		c-1.1-0.8-1.8-1.7-2.1-2.7c-0.3-1-0.5-3.3-0.5-6.8l0.2-8.5l0-4.1v-1.5c0-0.7,0-1.4-0.1-2.1l-0.6,0l-3.1,0.1l-0.3,0
		c-0.3,0-0.5-0.1-0.6-0.2c-0.1-0.1-0.2-0.3-0.2-0.5c0-0.3,0.1-0.5,0.3-0.7c0.2-0.2,0.8-0.5,1.7-0.9c0.7-0.3,1.4-0.8,2.3-1.6
		c0.9-0.8,1.6-1.6,2.2-2.6c0.3-0.5,0.7-1.5,1.3-2.9C1171.3,274.9,1171.6,274.2,1171.8,273.7z"/>
	<path fill="#53575A" d="M1251.5,306c0.2,0.3,0.2,0.6,0.2,0.7c0,0.4-0.3,1-0.9,2c-0.8,1.3-1.7,2.2-2.6,2.8c-0.6,0.4-1.4,0.6-2.5,0.6
		c-1.8,0-3.2-0.6-4.1-1.7c-0.6-0.7-0.9-1.8-1.2-3.5l-4.2,3c-1.5,0.9-2.6,1.4-3.4,1.6c-1.3,0.3-2.8,0.5-4.5,0.5c-1.3,0-2.3-0.4-3-1.2
		c-0.7-0.8-1.1-1.8-1.1-3c0-1.7,1.1-3.8,3.2-6.2c2.1-2.4,5-4.4,8.7-5.9c2.6-1.1,4.2-1.8,4.7-2.1c0.1-0.8,0.1-1.7,0.1-2.7
		c0-3.2-0.4-5.4-1.3-6.5s-2.2-1.7-3.9-1.7c-1.7,0-3.4,0.7-4.9,2c-0.9,0.9-1.6,2.5-2.1,4.8c-0.2,0.7-0.4,1.4-0.9,2.1
		c-1.1,0.7-2,1.1-2.6,1.1c-0.6,0-1.1-0.2-1.5-0.5c-0.3-0.2-0.4-0.4-0.4-0.6c0-0.7,0.7-2.1,2.1-4.4c1.4-2.3,3.2-4,5.3-5.2
		c2.1-1.1,4-1.7,5.6-1.7c2.2,0,3.8,0.2,4.8,0.6c1.1,0.4,2,1.1,2.8,2.1c0.8,1,1.3,2.1,1.5,3.2c0.1,0.6,0.2,2.5,0.2,5.9l-0.1,6l0,4.4
		c0,0.6,0,1.1,0,1.5c0,0.7,0,1.3,0,1.6c0,0.8,0.2,1.5,0.7,2c0.5,0.5,1,0.8,1.7,0.8c1,0,1.8-0.5,2.5-1.4l0.5-0.6
		C1250.8,306.2,1251.1,306.1,1251.5,306z M1240.4,304.9c0.2-3.2,0.3-5.5,0.3-6.8c0-0.7,0-1.6-0.1-2.8c-1.7,0.6-3.5,1.5-5.4,2.8
		c-1.9,1.2-3.4,2.7-4.5,4.3c-0.8,1.2-1.2,2.3-1.2,3.3c0,1,0.3,1.8,1,2.5c0.7,0.7,1.5,1,2.5,1c0.8,0,1.7-0.3,2.8-0.8
		C1237.3,307.6,1238.8,306.4,1240.4,304.9z"/>
	<path fill="#53575A" d="M1291,311.2l-0.2-0.5c0-0.2,0.1-0.4,0.3-0.8l2.2-0.5l3.1-0.6c0.3-0.1,0.4-0.3,0.5-0.5
		c0.2-0.3,0.2-1.3,0.2-2.9c0-8.6-0.1-13.5-0.2-14.8c-0.1-1.3-0.3-2.2-0.7-2.5c-0.4-0.4-1.3-0.6-2.7-0.8c-0.9-0.1-1.5-0.3-2-0.5
		l0.2-1.2c2.6-1.1,4.4-2,5.3-2.8c1.3-1.1,2.3-2.6,3.2-4.5l1.3,0c0.2,1.3,0.2,4.1,0.2,8.4l0,0.6c0,0.2,0,0.4,0.1,0.7
		c1-1.7,2.2-3.3,3.6-4.8l0.9-0.9c0.4-0.4,0.7-0.7,1-0.9c1.8-1.1,3.1-1.6,3.9-1.6c1.1,0,2,0.4,2.7,1.1c0.7,0.7,1.1,1.7,1.1,2.7
		c0,0.9-0.3,1.5-0.8,2c-0.7,0.6-1.5,0.9-2.3,0.9c-0.4,0-1.2-0.2-2.4-0.6c-1.2-0.4-2-0.6-2.3-0.6c-0.7,0-1.2,0.1-1.5,0.3
		c-0.7,0.6-1.6,1.7-2.6,3.4c-0.8,1.3-1.2,2.5-1.2,3.6l0.2,6.3l0.1,7.5c0.1,0.9,0.2,1.4,0.3,1.7c0.1,0.2,0.4,0.4,0.8,0.6
		c2.7,0.2,4.3,0.4,4.8,0.5c0.4,0,0.6,0.1,0.8,0.1c1.1,0,1.8,0.2,2.3,0.5c0.2,0.1,0.3,0.3,0.3,0.6c0,0.2-0.1,0.4-0.3,0.6l-4.2-0.1
		l-1.6,0l-2.3,0h-3.9l-2.1,0.1L1291,311.2z"/>
	<path fill="#53575A" d="M1354.6,284.3l0-1.1c1.6-0.5,2.5-0.8,2.6-0.8c0.9-0.4,1.9-1,2.9-1.9c1-0.8,1.8-1.8,2.5-2.8
		c0.3-0.1,0.5-0.1,0.7-0.1l0.5,0c0.1,1.2,0.2,2.1,0.2,2.6c0,0.1,0,0.7-0.1,1.7v2l0,10.9l-0.1,11.5c0,0.9,0.1,1.6,0.5,1.9
		c0.3,0.4,1.3,0.8,2.9,1.2c1,0.3,1.8,0.5,2.3,0.7c0.1,0.2,0.1,0.3,0.1,0.5c0,0.2-0.1,0.3-0.2,0.6c-1,0-2.2-0.1-3.8-0.2
		c-2.1-0.2-3.5-0.3-4.2-0.3c-0.3,0-2.3,0.1-6.1,0.2c-0.8,0-1.5,0.1-2.2,0.2c-0.1,0-0.3,0-0.6-0.1c-0.1-0.2-0.2-0.3-0.2-0.5
		c0-0.4,0.2-0.6,0.7-0.8c0.1,0,1.4-0.3,3.9-0.9c0.8-0.2,1.3-0.4,1.6-0.8c0.4-0.5,0.6-1.4,0.6-2.5c0-1.9,0.1-7.3,0.1-15.9
		c0-1.7-0.1-2.8-0.2-3.2c-0.1-0.3-0.5-0.6-1-1C1357.6,285.1,1356.4,284.7,1354.6,284.3z M1357.8,264.6c0-0.8,0.3-1.6,1-2.2
		c0.6-0.6,1.4-0.9,2.3-0.9c0.9,0,1.8,0.3,2.5,1c0.7,0.7,1.1,1.4,1.1,2.2c0,0.8-0.4,1.5-1.1,2.2c-0.7,0.7-1.5,1-2.5,1
		c-0.9,0-1.7-0.3-2.3-0.9C1358.1,266.5,1357.8,265.6,1357.8,264.6z"/>
	<path fill="#53575A" d="M1438.2,306c0.2,0.3,0.2,0.6,0.2,0.7c0,0.4-0.3,1-0.9,2c-0.8,1.3-1.7,2.2-2.6,2.8c-0.6,0.4-1.4,0.6-2.5,0.6
		c-1.8,0-3.2-0.6-4.1-1.7c-0.6-0.7-0.9-1.8-1.2-3.5l-4.2,3c-1.5,0.9-2.6,1.4-3.4,1.6c-1.3,0.3-2.8,0.5-4.5,0.5c-1.3,0-2.3-0.4-3-1.2
		c-0.7-0.8-1.1-1.8-1.1-3c0-1.7,1.1-3.8,3.2-6.2c2.1-2.4,5-4.4,8.7-5.9c2.6-1.1,4.2-1.8,4.7-2.1c0.1-0.8,0.1-1.7,0.1-2.7
		c0-3.2-0.4-5.4-1.3-6.5s-2.2-1.7-3.9-1.7c-1.7,0-3.4,0.7-4.9,2c-0.9,0.9-1.6,2.5-2.1,4.8c-0.2,0.7-0.4,1.4-0.9,2.1
		c-1.1,0.7-2,1.1-2.6,1.1c-0.6,0-1.1-0.2-1.5-0.5c-0.3-0.2-0.4-0.4-0.4-0.6c0-0.7,0.7-2.1,2.1-4.4c1.4-2.3,3.2-4,5.3-5.2
		c2.1-1.1,4-1.7,5.6-1.7c2.2,0,3.8,0.2,4.8,0.6c1.1,0.4,2,1.1,2.8,2.1c0.8,1,1.3,2.1,1.5,3.2c0.1,0.6,0.2,2.5,0.2,5.9l-0.1,6l0,4.4
		c0,0.6,0,1.1,0,1.5c0,0.7,0,1.3,0,1.6c0,0.8,0.2,1.5,0.7,2c0.5,0.5,1,0.8,1.7,0.8c1,0,1.8-0.5,2.5-1.4l0.5-0.6
		C1437.4,306.2,1437.7,306.1,1438.2,306z M1427.1,304.9c0.2-3.2,0.3-5.5,0.3-6.8c0-0.7,0-1.6-0.1-2.8c-1.7,0.6-3.5,1.5-5.4,2.8
		c-1.9,1.2-3.4,2.7-4.5,4.3c-0.8,1.2-1.2,2.3-1.2,3.3c0,1,0.3,1.8,1,2.5c0.7,0.7,1.5,1,2.5,1c0.8,0,1.7-0.3,2.8-0.8
		C1423.9,307.6,1425.5,306.4,1427.1,304.9z"/>
</g>
<g>
</g>
<g>
</g>
<g>
</g>
<g>
</g>
<g>
</g>
<g>
</g>
</svg>
