<?xml version="1.0" encoding="utf-8"?>
<!-- Generator: Adobe Illustrator 24.3.0, SVG Export Plug-In . SVG Version: 6.00 Build 0)  -->
<svg version="1.1" id="Capa_1" xmlns="http://www.w3.org/2000/svg" xmlns:xlink="http://www.w3.org/1999/xlink" x="0px" y="0px"
	 viewBox="0 0 36 36" style="enable-background:new 0 0 36 36;" xml:space="preserve">
<style type="text/css">
	.st0{fill:#07D2B9;}
</style>
<path class="st0" d="M24.2,17.1c-1.5-1.1-13-8.5-13-8.5v5.9c1.9,1.2,3.5,2.3,4,2.6c1.5,1.1,0,1.8,0,1.8l-4,2.6v6l13-8.6
	C24.2,18.9,25.6,18.2,24.2,17.1z"/>
</svg>
